<?xml version="1.0" standalone="no"?>
<!DOCTYPE svg PUBLIC "-//W3C//DTD SVG 20010904//EN"
 "http://www.w3.org/TR/2001/REC-SVG-20010904/DTD/svg10.dtd">
<svg version="1.0" xmlns="http://www.w3.org/2000/svg"
 width="16.000000pt" height="16.000000pt" viewBox="0 0 16.000000 16.000000"
 preserveAspectRatio="xMidYMid meet">

<g transform="translate(0.000000,16.000000) scale(0.100000,-0.100000)"
fill="#000000" stroke="none">
<path d="M6 134 c-8 -20 -8 -88 0 -108 9 -23 139 -23 148 0 8 20 8 88 0 108
-9 23 -139 23 -148 0z m75 -16 c0 -10 2 -10 6 0 7 17 28 15 44 -4 10 -13 10
-20 0 -36 -9 -15 -9 -23 0 -34 8 -10 9 -14 0 -14 -6 0 -15 8 -18 17 -6 15 -7
15 -14 -3 -6 -16 -8 -15 -8 7 -1 15 6 29 14 33 17 6 20 26 4 26 -5 0 -7 -4 -4
-10 4 -6 -5 -10 -20 -10 -15 0 -24 4 -20 10 3 6 -1 10 -9 10 -23 0 -20 -18 5
-25 30 -10 22 -50 -11 -50 -22 0 -25 5 -27 35 -1 19 3 40 9 47 13 17 48 17 49
1z"/>
<path d="M40 60 c0 -5 7 -10 15 -10 8 0 15 5 15 10 0 6 -7 10 -15 10 -8 0 -15
-4 -15 -10z"/>
</g>
</svg>
